%YAML 1.1
%TAG !u! tag:unity3d.com,2011:
--- !u!114 &11400000
MonoBehaviour:
  m_ObjectHideFlags: 0
  m_CorrespondingSourceObject: {fileID: 0}
  m_PrefabInstance: {fileID: 0}
  m_PrefabAsset: {fileID: 0}
  m_GameObject: {fileID: 0}
  m_Enabled: 1
  m_EditorHideFlags: 0
  m_Script: {fileID: 11500000, guid: 1dc486625ffb7944a8857c6fc8536a97, type: 3}
  m_Name: Belt
  m_EditorClassIdentifier: 
  itemName: Belt
  description: Basic armor that helps you withstand blows.
  modifierST: 0
  modifierDE: 0
  modifierPE: 0
  modifierINTE: 0
  modifierHP: 50
  currentHP: 0
