%YAML 1.1
%TAG !u! tag:unity3d.com,2011:
--- !u!114 &11400000
MonoBehaviour:
  m_ObjectHideFlags: 0
  m_CorrespondingSourceObject: {fileID: 0}
  m_PrefabInstance: {fileID: 0}
  m_PrefabAsset: {fileID: 0}
  m_GameObject: {fileID: 0}
  m_Enabled: 1
  m_EditorHideFlags: 0
  m_Script: {fileID: 11500000, guid: 776a47c210b771647b3432808e70ffb6, type: 3}
  m_Name: Hell beast
  m_EditorClassIdentifier: 
  stBase: 75
  hpBase: 450
  deBase: 15
  peBase: 0
  inteBase: 0
  currentHp: 475
  skills: []
  nameCreature: Hell beast
  descriptionCreature: From hell crosses these caves in search of souls, despite being
    powerful is quite slow.
  attacktype: 0
  Status: 0
  loot:
  - {fileID: 3841498771823584959, guid: f0e11ae4418e7104f9035a823076957d, type: 3}
  - {fileID: 3841498771823584959, guid: b87040ddd0de8524f98a4a6e0322430e, type: 3}
  - {fileID: 3841498771823584959, guid: d136082b8e55ade4fa0c7a96adc6ab01, type: 3}
  - {fileID: 3841498771823584959, guid: c4c6ae31d835d6c488dc3c8aba1f542d, type: 3}
  - {fileID: 3841498771823584959, guid: e4bfbf1e8c1d2294794a22bab55c1179, type: 3}
  type: 2
