%YAML 1.1
%TAG !u! tag:unity3d.com,2011:
--- !u!114 &11400000
MonoBehaviour:
  m_ObjectHideFlags: 0
  m_CorrespondingSourceObject: {fileID: 0}
  m_PrefabInstance: {fileID: 0}
  m_PrefabAsset: {fileID: 0}
  m_GameObject: {fileID: 0}
  m_Enabled: 1
  m_EditorHideFlags: 0
  m_Script: {fileID: 11500000, guid: 776a47c210b771647b3432808e70ffb6, type: 3}
  m_Name: Ghost Elite
  m_EditorClassIdentifier: 
  stBase: 15
  hpBase: 150
  deBase: 30
  peBase: 30
  inteBase: 0
  currentHp: 180
  skills: []
  nameCreature: Elite Ghost
  descriptionCreature: Boo
  attacktype: 2
  Status: 0
  loot:
  - {fileID: 3841498771823584959, guid: 6b38a3ce818453545857740cc516acf5, type: 3}
  - {fileID: 3841498771823584959, guid: 4edd12aa89532b94cb85e73d4951b525, type: 3}
  - {fileID: 3841498771823584959, guid: 9a23f4fdf32b3a541be9209c065eec29, type: 3}
  - {fileID: 3841498771823584959, guid: 293e9a3a44a461343a4c302e543afa65, type: 3}
  - {fileID: 3841498771823584959, guid: b64e5b9741197a042bcd52edf445fb6d, type: 3}
  - {fileID: 3841498771823584959, guid: 8ed58263fd7dc8144a465f685f10d37a, type: 3}
  - {fileID: 3841498771823584959, guid: ed1f13452222f794396771b61a9e0a93, type: 3}
  - {fileID: 3841498771823584959, guid: 79ef4e97ad3067548a58f8f49f5de847, type: 3}
  - {fileID: 3841498771823584959, guid: 15dfe6604e66b11488efc5afaa2077ea, type: 3}
  - {fileID: 3841498771823584959, guid: 179f88f94df382a439565e4f916e7231, type: 3}
  type: 1
