%YAML 1.1
%TAG !u! tag:unity3d.com,2011:
--- !u!114 &11400000
MonoBehaviour:
  m_ObjectHideFlags: 0
  m_CorrespondingSourceObject: {fileID: 0}
  m_PrefabInstance: {fileID: 0}
  m_PrefabAsset: {fileID: 0}
  m_GameObject: {fileID: 0}
  m_Enabled: 1
  m_EditorHideFlags: 0
  m_Script: {fileID: 11500000, guid: 63834bc01d60a0f41a6ef0bf0cf4baae, type: 3}
  m_Name: Egg
  m_EditorClassIdentifier: 
  itemName: Egg
  description: The proteins that contain an egg favors a little to your strength.
  modifierST: 10
  modifierDE: 0
  modifierPE: 0
  modifierINTE: 0
  modifierHP: 0
  currentHP: 0
