%YAML 1.1
%TAG !u! tag:unity3d.com,2011:
--- !u!114 &11400000
MonoBehaviour:
  m_ObjectHideFlags: 0
  m_CorrespondingSourceObject: {fileID: 0}
  m_PrefabInstance: {fileID: 0}
  m_PrefabAsset: {fileID: 0}
  m_GameObject: {fileID: 0}
  m_Enabled: 1
  m_EditorHideFlags: 0
  m_Script: {fileID: 11500000, guid: aed5fac5ee26e6345a8e171f2b216299, type: 3}
  m_Name: Unlock Alchemist
  m_EditorClassIdentifier: 
  achivementName: 'Character: alchemist'
  achivementDesc: End a run with success
  itIsDone: 0
